{
"designEditor": true,
  "productDefinition": {
    "surfaces": [
      "businesscard2_side1"
    ]
  },
  "editorConfig": {
  "initialMode": "advanced",
  "widgets": {
    "Toolbox": {
      "buttons": ["Text","RichText","Image","rectangle","LinearBarcode","Background"]
    },
    "TopToolbar": {
      "textFontColorButtonEnabled": true,
      "textFillColorButtonEnabled": true,
      "borderColorButtonEnabled": true
    },
    "GalleryDialog": {
      "backgroundColorPickerEnabled": true
    },
    "ColorPicker": {
	  "showPaletteOnly": false, 
      "sectionCollapseEnabled": false,
      "defaultColorSpace": "rgb",
      "availableColorSpaces": [ "rgb", "cmyk" ],
      "sections": [
        {
          "type": "NoColorSection",
          "targets": [ "Fill", "Border", "Background" ]
        },
        {
          "type": "RecentSection"
        },
        {
          "translationKey": "Grayscale Colors",
          "type": "PaletteSection",
          "palette": [
            "rgb(0, 0, 0)",
            "rgb(67, 67, 67)",
            "rgb(102, 102, 102)",
            "rgb(204, 204, 204)",
            "rgb(217, 217, 217)",
            "rgb(255, 255, 255)"
          ]
        },
        {
          "translationKey": "Rgb Colors",
          "type": "PaletteSection",
          "palette": [
            "rgb(152, 0, 0)",
            "rgb(255, 0, 0)",
            "rgb(255, 153, 0)",
            "rgb(255, 255, 0)",
            "rgb(0, 255, 0)",
            "rgb(0, 255, 255)",
            "rgb(74, 134, 232)",
            "rgb(0, 0, 255)",
            "rgb(153, 0, 255)",
            "rgb(255, 0, 255)"
          ]
        },
        {
          "translationKey": "Cmyk Colors",
          "type": "PaletteSection",
          "palette": [[
            "cmyk(8.6%, 33.3%, 22.7%, 1.2%, 100%)",
            "cmyk(3.5%, 25.5%, 11%, 0%, 100%)",
            "cmyk(2%, 11.8%, 20%, 0%, 100%)",
            "cmyk(1.2%, 6.3%, 23.9%, 0%, 100%)",
            "cmyk(17.6%, 1.2%, 22%, 0%, 100%)",
            "cmyk(22.4%, 5.1%, 9.8%, 0%, 100%)",
            "cmyk(24.3%, 9.4%, 0.4%, 0%, 100%)",
            "cmyk(22%, 5.1%, 2.4%, 0%, 100%)",
            "cmyk(18%, 16.1%, 0.8%, 0%, 100%)",
            "cmyk(9.4%, 20.4%, 4.7%, 0%, 100%)",
            "cmyk(8.6%, 62%, 51.4%, 1.2%, 100%)",
            "cmyk(5.1%, 50.6%, 25.5%, 0.4%, 100%)",
            "cmyk(2%, 25.1%, 40%, 0.4%, 100%)",
            "cmyk(0.8%, 11%, 48.2%, 0%, 100%)",
            "cmyk(32.2%, 2.7%, 43.1%, 0.8%, 100%)",
            "cmyk(41.6%, 9.8%, 19.2%, 1.6%, 100%)",
            "cmyk(39.6%, 16.9%, 0%, 0%, 100%)",
            "cmyk(43.1%, 11%, 2%, 0%, 100%)",
            "cmyk(36.1%, 32.9%, 0.4%, 0%, 100%)",
            "cmyk(17.3%, 40%, 6.3%, 1.2%, 100%)",
            "cmyk(11.4%, 87.1%, 96.1%, 2.4%, 100%)",
            "cmyk(5.9%, 72.9%, 49%, 0.8%, 100%)",
            "cmyk(1.6%, 37.3%, 62.4%, 0%, 100%)",
            "cmyk(0.8%, 16.5%, 69.4%, 0%, 100%)",
            "cmyk(45.1%, 5.1%, 63.9%, 1.2%, 100%)",
            "cmyk(57.3%, 16.5%, 25.1%, 7.1%, 100%)",
            "cmyk(60.4%, 31%, 0%, 0%, 100%)",
            "cmyk(62.4%, 20%, 0.8%, 0.4%, 100%)",
            "cmyk(55.3%, 51%, 0%, 0%, 100%)",
            "cmyk(23.9%, 59.2%, 8.6%, 2.7%, 100%)",
            "cmyk(22.7%, 88.6%, 100%, 15.7%, 100%)",
            "cmyk(11.4%, 90.6%, 100%, 2.7%, 100%)",
            "cmyk(4.3%, 54.1%, 85.1%, 0.4%, 100%)",
            "cmyk(2.4%, 28.2%, 87.1%, 0%, 100%)",
            "cmyk(58.4%, 13.3%, 83.9%, 4.7%, 100%)",
            "cmyk(72.9%, 24.3%, 31.4%, 18.8%, 100%)",
            "cmyk(80%, 47.8%, 0%, 0%, 100%)",
            "cmyk(82%, 35.3%, 0.8%, 0.4%, 100%)",
            "cmyk(76.1%, 70.6%, 0%, 0%, 100%)",
            "cmyk(31%, 76.5%, 18%, 11%, 100%)",
            "cmyk(35.7%, 73.7%, 71.8%, 61.6%, 100%)",
            "cmyk(31.8%, 82.7%, 81.6%, 54.5%, 100%)",
            "cmyk(26.3%, 67.1%, 96.5%, 43.1%, 100%)",
            "cmyk(29%, 49.4%, 100%, 36.1%, 100%)",
            "cmyk(64.3%, 29.8%, 83.9%, 56.5%, 100%)",
            "cmyk(75.7%, 43.9%, 43.1%, 65.1%, 100%)",
            "cmyk(99.2%, 71.8%, 13.3%, 7.5%, 100%)",
            "cmyk(94.1%, 61.6%, 20.4%, 41.2%, 100%)",
            "cmyk(96.5%, 92.2%, 27.5%, 37.3%, 100%)"
          ]]
        }
      ]
    }
  }
},
  "steps": {
    "editor": {
      "leaveWarning": true
    },
    "approve": {
      "preview": {
        "width": 825,
        "height": 825
      }
    }
  }
}