{
  "productDefinition": {
    "surfaces": [
      "businesscard2_side1"
    ]
  },
  "editorConfig": {
	  "defaultLanguage": "ru",
	  "defaultAssetSelectWidget": "AssetManager",
	  "initialMode": "Advanced",

	  "assetSources": {    
		"[source]Deposit Photos": {
		  "type": "DepositPhotos",
		  "apiKey": "a91872320b088f2991897785235d54223f72d13c",
		  "size": "XL"
		}
	  },

	  "widgets": {
		"Toolbox": {
		  "buttons": [
			{
			  "type": "AssetManager",
			  "action": "Image",
			  "translationKey": "Toolbox.IMAGE",
			  "iconClass": "cc-icon-add-image"
			}
		  ]
		},

		"AssetManager": {
		  "tabs": [
			{
			  "name": "Deposit Photos",
			  "assetSourceInstance": "[source]Deposit Photos",

			  "iconClassName": "cc-icon-deposit-photos"
			}
		  ]
		}
	  }
  },
  "steps": {
    "editor": {
      "leaveWarning": true
    },
    "approve": {
      "preview": {
        "width": 825,
        "height": 825
      }
    }
  }
}